{
  "Logging": {
    "LogLevel": {
      "Default": "Debug",
      "System": "Information",
      "Microsoft": "Information"
    }
  },
  "Kestrel": {
    "EndPoints": {
      "Http": {
        "Url": "http://[::]:5000"
      },
      "Https": {
        "Url": "https://[::]:5001"
      }
    }
  },
  "SecretsSource": "null|AWS_SSM",
  "AWS_SSM_Stores": {
    "Secrets": "<secrets-ssm-arn>"
  },
  "ExternalToken": "<token-value>",
  "IdentitySource": {
    "Type": "MockStore|LDAP|LDAPv2",
    "Users": [
      {
        "Username": "<username>",
        "Name": "<name>",
        "Password": "<password>"
      }
    ],
    "Ldap": {
      "Server": "<server-prefer-LDAPS>",
      "BindUsername": "<username>",
      "BindPassword": "<password>",
      "UserFilter": "<user-filter-or-blank>"
    },
    "Ldapv2": {
      "Server": "<server>",
      "Port": 636,
      "BindUsername": "<username-including-domain>",
      "BindPassword": "<password>",
      "UserFilter": "<user-filter-or-blank>",
      "BaseDN": "<base-dn>",
      "DefaultUserDomain": "@<default-domain>"
    }
  },
  "ConnectionStrings": {
    "Application": "Data Source=<file-name>.db"
  },
  "AllowManualDeploymentsToBeAdded": false,
  "Jira": {
    "Enabled": true,
    "MinutesBetweenRefresh": 10,
    "BaseUrl": "https://<jira-url>",
    "SiteProjectKey": "<project-key>",
    "SiteProjectKeys": ["<project-key-1", "project-key-2"],
    "User": {
      "UserName": "<user-name-or-blank>",
      "Password": "<password-or-blank>"
    },
    "ProjectStatusIdMapping": {
      "DEV": {
        "IN_PROGRESS": [1],
        "COMPLETED": [5]
      },
      "TEST": {
        "IN_PROGRESS": [1],
        "COMPLETED": [5]
      }
    }
  }
}
